STAT 413/613: HW on List Columns and COVID19
…
6 Unnest the Data Frames

Unnest and ungroup the data frame df_long and save into a new data frame called df_all

df_long %>% 
  unnest(cols = data) %>% 
  ungroup()->df_all
df_all

## # A tibble: 3,225,472 x 12
##    Population County Country_State Province_State Country_Region   Lat  Long
##         <dbl> <chr>  <chr>         <chr>          <chr>          <dbl> <dbl>
##  1          0 NA     Afghanistan   <NA>           Afghanistan     33.9  67.7
##  2          0 NA     Afghanistan   <NA>           Afghanistan     33.9  67.7
##  3          0 NA     Afghanistan   <NA>           Afghanistan     33.9  67.7
##  4          0 NA     Afghanistan   <NA>           Afghanistan     33.9  67.7
##  5          0 NA     Afghanistan   <NA>           Afghanistan     33.9  67.7
##  6          0 NA     Afghanistan   <NA>           Afghanistan     33.9  67.7
##  7          0 NA     Afghanistan   <NA>           Afghanistan     33.9  67.7
##  8          0 NA     Afghanistan   <NA>           Afghanistan     33.9  67.7
##  9          0 NA     Afghanistan   <NA>           Afghanistan     33.9  67.7
## 10          0 NA     Afghanistan   <NA>           Afghanistan     33.9  67.7
## #  with 3,225,462 more rows, and 5 more variables: Date <date>,
## #   daily_values <dbl>, Continent <chr>, case_type <fct>, vars <list>

Remove original df and df_long dataframes from the environment

# reference
# http://datasharkie.com/how-to-remove-data-frame-in-r
remove(df,df_long)

Remove the vars variable from df_all

df_all %>% 
  select(-vars)->df_all
df_all

## # A tibble: 3,225,472 x 11
##    Population County Country_State Province_State Country_Region   Lat  Long
##         <dbl> <chr>  <chr>         <chr>          <chr>          <dbl> <dbl>
##  1          0 NA     Afghanistan   <NA>           Afghanistan     33.9  67.7
##  2          0 NA     Afghanistan   <NA>           Afghanistan     33.9  67.7
##  3          0 NA     Afghanistan   <NA>           Afghanistan     33.9  67.7
##  4          0 NA     Afghanistan   <NA>           Afghanistan     33.9  67.7
##  5          0 NA     Afghanistan   <NA>           Afghanistan     33.9  67.7
##  6          0 NA     Afghanistan   <NA>           Afghanistan     33.9  67.7
##  7          0 NA     Afghanistan   <NA>           Afghanistan     33.9  67.7
##  8          0 NA     Afghanistan   <NA>           Afghanistan     33.9  67.7
##  9          0 NA     Afghanistan   <NA>           Afghanistan     33.9  67.7
## 10          0 NA     Afghanistan   <NA>           Afghanistan     33.9  67.7
## #  with 3,225,462 more rows, and 4 more variables: Date <date>,
## #   daily_values <dbl>, Continent <chr>, case_type <fct>
…
df_pop <- read_csv("./data/WPP2019_TotalPopulation.csv")

## 
##  Column specification 
## cols(
##   LocID = col_double(),
##   Location = col_character(),
##   PopTotal = col_double(),
##   PopDensity = col_double()
## )

df_pop

## # A tibble: 235 x 4
##    LocID Location            PopTotal PopDensity
##    <dbl> <chr>                  <dbl>      <dbl>
##  1     4 Afghanistan          38042.       58.3 
##  2     8 Albania               2881.      105.  
##  3    12 Algeria              43053.       18.1 
##  4    16 American Samoa          55.3     277.  
##  5    20 Andorra                 77.1     164.  
##  6    24 Angola               31825.       25.5 
##  7    28 Antigua and Barbuda     97.1     221.  
##  8    31 Azerbaijan           10048.      122.  
##  9    32 Argentina            44781.       16.4 
## 10    36 Australia            25203.        3.28
## #  with 225 more rows
…
sum_not_in_covid/world_total_pop

##   not_in_covid_total
## 1        0.006180849

# Around 6 % of the world population contained in these countries

Use a dplyr join to remove all Locations that are not in the df_all data frame.

semi_join(df_pop, df_all, by = c("Location" = "Country_Region"))->df_pop
df_pop

## # A tibble: 189 x 4
##    LocID Location            PopTotal PopDensity
##    <dbl> <chr>                  <dbl>      <dbl>
##  1     4 Afghanistan          38042.       58.3 
##  2     8 Albania               2881.      105.  
##  3    12 Algeria              43053.       18.1 
##  4    20 Andorra                 77.1     164.  
##  5    24 Angola               31825.       25.5 
##  6    28 Antigua and Barbuda     97.1     221.  
##  7    31 Azerbaijan           10048.      122.  
##  8    32 Argentina            44781.       16.4 
##  9    36 Australia            25203.        3.28
## 10    40 Austria               8955.      109.  
## #  with 179 more rows
…
Use a dplyr join to add the data from df_pop to df_all to create df_allp

This means there will be two columns with population data:

Population for US Counties

PopTotal for the country level

df_all %>%
  left_join(df_pop, by = c("Country_Region" = "Location")) %>% 
  select(Population, PopTotal, everything())->df_allp
df_allp

## # A tibble: 3,225,472 x 16
##    Population PopTotal County Country_State Province_State Country_Region   Lat
##         <dbl>    <dbl> <chr>  <chr>         <chr>          <chr>          <dbl>
##  1          0   38042. NA     Afghanistan   <NA>           Afghanistan     33.9
##  2          0   38042. NA     Afghanistan   <NA>           Afghanistan     33.9
##  3          0   38042. NA     Afghanistan   <NA>           Afghanistan     33.9
##  4          0   38042. NA     Afghanistan   <NA>           Afghanistan     33.9
##  5          0   38042. NA     Afghanistan   <NA>           Afghanistan     33.9
##  6          0   38042. NA     Afghanistan   <NA>           Afghanistan     33.9
##  7          0   38042. NA     Afghanistan   <NA>           Afghanistan     33.9
##  8          0   38042. NA     Afghanistan   <NA>           Afghanistan     33.9
##  9          0   38042. NA     Afghanistan   <NA>           Afghanistan     33.9
## 10          0   38042. NA     Afghanistan   <NA>           Afghanistan     33.9
## #  with 3,225,462 more rows, and 9 more variables: Long <dbl>, Date <date>,
## #   daily_values <dbl>, Continent <chr>, case_type <fct>, LocID <dbl>,
## #   PopDensity <dbl>, rank_p <int>, rank_d <int>

9 How many Country Regions have Multiple Country States?

Calculate the number of Country States for each Country Region

Show in descending order of the number of Country_States by Country_Region.

df_allp %>% 
  group_by(Country_Region) %>% 
  summarise(num_state = n_distinct(Country_State)) %>% 
  arrange(desc(num_state))

## # A tibble: 192 x 2
##    Country_Region num_state
##    <chr>              <int>
##  1 US                    59
##  2 China                 33
##  3 Canada                16
##  4 France                12
##  5 United Kingdom        12
##  6 Australia              8
##  7 Netherlands            5
##  8 Denmark                3
##  9 Afghanistan            1
## 10 Albania                1
## #  with 182 more rows
# 8 Country Regions have Multiple Country States

10 Analyse Data

Create a data frame by with data grouped by Country_Region, Continent case_type, rank_p and rank_d that summarizes the current totals and the totals as a percentage of total population.

Be sure to look at how the data is reported so the numbers make sense.

df_allp %>% 
  group_by(Country_Region, Continent, case_type, rank_p, rank_d) %>% 
  summarise(current_totals = max(daily_values),
            total_percent = current_totals/ (last(PopTotal)*1000)*100) -> df_allp01
df_allp01

## # A tibble: 386 x 7
## # Groups:   Country_Region, Continent, case_type, rank_p [386]
##    Country_Region Continent case_type rank_p rank_d current_totals total_percent
##    <chr>          <chr>     <fct>      <int>  <int>          <dbl>         <dbl>
##  1 Afghanistan    Asia      confirme     37    119          57160       0.150  
##  2 Afghanistan    Asia      deaths_g     37    119           2521       0.00663
##  3 Albania        Europe    confirme    136     79         128393       4.46   
##  4 Albania        Europe    deaths_g    136     79           2317       0.0804 
##  5 Algeria        Africa    confirme     34    165         118516       0.275  
##  6 Algeria        Africa    deaths_g     34    165           3130       0.00727
##  7 Andorra        Europe    confirme    182     53          12545      16.3    
##  8 Andorra        Europe    deaths_g    182     53            120       0.156  
##  9 Angola         Africa    confirme     45    148          23457       0.0737 
## 10 Angola         Africa    deaths_g     45    148            553       0.00174
## #  with 376 more rows
…
13 Analyze US States Deaths Extra Credit

Create a data frame with the total deaths and deaths per population for those US states with more than 0 deaths and more than 0 population.

df_allp %>% 
  group_by(Country_State, case_type) %>% 
  summarise(current_totals = max(daily_values),
            total_percent = current_totals/(last(PopTotal)*1000)*100) %>% 
  filter(case_type == "deaths_US", current_totals > 0) ->df_allp04

## `summarise()` has grouped output by 'Country_State'. You can override using the `.groups` argument.

df_allp04

## # A tibble: 56 x 4
## # Groups:   Country_State [56]
##    Country_State           case_type current_totals total_percent
##    <chr>                   <fct>              <dbl>         <dbl>
##  1 US_Alabama              deaths_US           1487     0.000452 
##  2 US_Alaska               deaths_US            165     0.0000501
##  3 US_Arizona              deaths_US           9733     0.00296  
##  4 US_Arkansas             deaths_US            634     0.000193 
##  5 US_California           deaths_US          23493     0.00714  
##  6 US_Colorado             deaths_US            790     0.000240 
##  7 US_Connecticut          deaths_US           2355     0.000716 
##  8 US_Delaware             deaths_US            788     0.000239 
##  9 US_District of Columbia deaths_US           1081     0.000329 
## 10 US_Florida              deaths_US           5981     0.00182  
## #  with 46 more rows
…
